<?xml version="1.0" encoding="UTF-8" standalone="no"?>
<svg
   xmlns:dc="http://purl.org/dc/elements/1.1/"
   xmlns:cc="http://creativecommons.org/ns#"
   xmlns:rdf="http://www.w3.org/1999/02/22-rdf-syntax-ns#"
   xmlns:svg="http://www.w3.org/2000/svg"
   xmlns="http://www.w3.org/2000/svg"
   viewBox="0 0 26.666668 26.666668"
   height="26.666668"
   width="26.666668"
   xml:space="preserve"
   id="svg2"
   version="1.1"><metadata
     id="metadata8"><rdf:RDF><cc:Work
         rdf:about=""><dc:format>image/svg+xml</dc:format><dc:type
           rdf:resource="http://purl.org/dc/dcmitype/StillImage" /></cc:Work></rdf:RDF></metadata><defs
     id="defs6" /><g
     transform="matrix(1.3333333,0,0,-1.3333333,0,26.666667)"
     id="g10"><g
       transform="scale(0.1)"
       id="g12"><path
         id="path14"
         style="fill:#007691;fill-opacity:1;fill-rule:evenodd;stroke:none"
         d="m 103.551,192.359 c 51.777,0 93.75,-41.972 93.75,-93.7496 0,-51.7774 -41.973,-93.75002 -93.75,-93.75002 -51.7776,0 -93.75022,41.97262 -93.75022,93.75002 0,51.7776 41.97262,93.7496 93.75022,93.7496" /><path
         id="path16"
         style="fill:#ffffff;fill-opacity:1;fill-rule:evenodd;stroke:none"
         d="m 103.594,190.996 c 50.937,0 92.226,-41.293 92.226,-92.2304 0,-50.9336 -41.289,-92.22654 -92.226,-92.22654 -50.9377,0 -92.2307,41.29294 -92.2307,92.22654 0,50.9374 41.293,92.2304 92.2307,92.2304" /><path
         id="path18"
         style="fill:#808080;fill-opacity:1;fill-rule:evenodd;stroke:none"
         d="m 137,143.301 c 0,-2.028 1.34,-2.645 2.109,-3.793 l -8.91,-9.024 c -0.883,0.579 -2.269,2.168 -3.164,3.059 -1.047,1.051 -2.004,2.586 -3.957,2.586 -1.781,0 -3.797,-1.871 -3.797,-3.586 0,-2.375 1.703,-2.266 2.11,-3.793 -0.707,-1.066 -16.321,-16.41 -19.246,-19.359 -0.497,-0.5 -0.993,-0.821 -1.426,-1.321 -1.6018,-1.847 -3.3518,-3.449 -5.1135,-5.215 l -7.6992,-7.6987 c -0.2579,-0.2618 -0.3711,-0.3829 -0.6407,-0.629 -0.1953,-0.1757 -0.1445,-0.1132 -0.3359,-0.2929 l -1.6602,-1.7149 c -3.1093,-3.1015 -4.1679,-3.375 -4.1679,-7.0156 0,-1.8281 1.8554,-3.9023 2.9531,-4.6367 -0.6094,-0.9141 -2.1328,-2.2422 -3.0039,-3.1133 -1.9258,-1.9258 -2.6914,-2.0351 -2.6914,-4.4805 0,-0.7695 0.25,-0.7421 0.4219,-1.4804 -0.9805,-0.6602 -13.9375,-13.8321 -16.1875,-16.0821 -2.2969,-2.2968 -2.3594,-1.7773 -1.9532,-3.5351 1.5508,-0.3711 1.2032,-0.3789 3.4297,1.8437 0.8242,0.8282 1.4961,1.5 2.3203,2.3243 1.5977,1.5976 3.0391,3.039 4.6407,4.6406 1.4296,1.4297 8.5273,8.7226 9.4375,9.332 2.7187,-0.6289 2.2812,-0.9883 5.4335,2.1641 0.8946,0.8945 2.2813,2.4843 3.2149,3.1093 2.3242,-0.6171 0.918,-2.9531 6.1172,-2.9531 2.3554,0 4.6289,2.836 5.9606,4.168 3.551,3.5508 35.09,35.3593 36.227,36.1213 1.07,-0.715 1.621,-2.11 3.379,-2.11 1.976,0 4.004,1.918 4.004,3.797 0,2.383 -4.297,4.77 -5.907,7.172 l 8.911,9.02 c 1.05,-0.684 1.839,-2.27 3.75,-2.27 2.054,0 4.32,2.75 3.558,5.028 -0.398,1.191 -9.254,9.628 -11.101,11.48 -1.594,1.594 -1.575,1.844 -3.637,1.844 -1.465,0 -3.379,-2.102 -3.379,-3.586 z M 96.2969,100.508 c 0.5508,-1.4767 2.9453,-2.1603 2.9101,-4.0471 -0.3906,-0.4843 -0.2148,-0.3632 -0.8125,-0.6211 -1.5586,0.1211 -2.4297,2.4297 -3.8203,2.9454 L 89.125,93.3359 c 0.3594,-0.9492 1.957,-2.1875 2.7344,-3.0468 0.3398,-0.1836 0.4414,0.6328 0.3515,-0.7735 -0.0273,-0.4023 -0.0273,-0.3789 -0.3164,-0.664 -0.4336,-0.4297 -0.8672,-0.4102 -1.4882,-0.1641 -0.3243,0.7109 -2.2735,2.6523 -3.004,2.9258 -0.8789,-0.7227 -2.7187,-2.5547 -3.4648,-3.4688 -1.457,-1.7929 -0.6328,-3.9023 0.7656,-4.6953 l 7.0157,-7.1562 c 3.5742,-3.5703 5.4531,-0.3125 8.5082,2.7461 2.406,2.4062 4.656,4.6562 7.066,7.0664 1.32,1.3203 6.48,6.1562 7.109,7.2734 -1.449,1.8633 -6.597,6.0977 -8.148,8.1801 h -0.293 c -0.262,0.679 -3.27,3.746 -4.172,4.32 -0.91,-0.422 -1.9804,-1.813 -2.789,-2.621 -0.8945,-0.891 -1.9453,-1.828 -2.7031,-2.75" /><path
         id="path20"
         style="fill:#ffffff;fill-opacity:1;fill-rule:evenodd;stroke:none"
         d="m 107.895,102.762 4.574,-4.4222 c 2.48,2.3672 4.738,4.7302 7.117,7.1092 1.324,1.324 6.078,6.383 7.227,6.989 0.757,1.593 4.742,4.3 5.351,5.839 l -5.508,5.356 -19.746,-19.723 0.985,-1.148" /><path
         id="path22"
         style="fill:#ffffff;fill-opacity:1;fill-rule:evenodd;stroke:none"
         d="m 139.297,136.348 -7.567,-7.539 c 1.153,-1.121 4.68,-5.02 5.692,-5.52 1.082,1.055 7.109,6.867 7.457,7.621 0.633,0.36 1.09,0.887 1.547,1.414 -1.332,1.852 -4.047,3.731 -5.328,5.563 -0.856,-0.34 -1.328,-0.946 -1.801,-1.539" /><path
         id="path24"
         style="fill:#ffffff;fill-opacity:1;fill-rule:evenodd;stroke:none"
         d="M 130.266,113.277 114.031,96.8984 c 0.399,-0.8007 1.27,-1.4179 1.887,-2.0664 l 19.84,19.731 -1.82,1.972 c -1.032,-0.281 -2.239,-1.984 -3.297,-2.957 l -0.375,-0.301" /><path
         id="path26"
         style="fill:#ffffff;fill-opacity:1;fill-rule:evenodd;stroke:none"
         d="m 122.676,133.848 c -2.903,-1.325 0.265,-3.332 2.484,-5.551 1.809,-1.809 3.461,-3.465 5.27,-5.274 l 7.89,-7.937 c 0.512,-0.566 1.883,-2.41 2.957,-2.023 0.434,0.156 1.125,0.898 1.192,1.386 0.136,0.989 -2.555,3.211 -3.656,4.297 -3.055,3.024 -12.083,11.676 -14.504,14.395 -0.481,0.535 -0.77,1.101 -1.633,0.707" /><path
         id="path28"
         style="fill:#ffffff;fill-opacity:1;fill-rule:evenodd;stroke:none"
         d="m 103.281,107.457 c 0.664,-0.602 1.25,-1.48 2.133,-1.906 3.957,4.289 10.231,10.242 14.731,14.742 1.003,1.008 4.464,4.062 4.816,5.109 l -1.859,1.864 -19.821,-19.809" /><path
         id="path30"
         style="fill:#808080;fill-opacity:1;fill-rule:evenodd;stroke:none"
         d="m 103.281,107.457 -1.492,-1.578 c 0.902,-0.574 3.91,-3.641 4.172,-4.32 h 0.293 l 1.641,1.203 -0.985,1.148 19.746,19.723 c -0.422,0.672 -1.066,1.297 -1.695,1.769 -0.352,-1.047 -3.813,-4.101 -4.816,-5.109 -4.5,-4.5 -10.774,-10.453 -14.731,-14.742 -0.883,0.426 -1.469,1.304 -2.133,1.906" /><path
         id="path32"
         style="fill:#ffffff;fill-opacity:1;fill-rule:evenodd;stroke:none"
         d="m 87.6836,77.0039 c -0.3359,0.6914 -1.5234,1.8672 -2.2148,2.2109 -2.7579,-3.7929 -6.1993,-4.6484 -4.3516,-6.5625 0.5156,-0.539 1.043,-0.996 1.8789,-0.2304 1.1953,1.0898 2.9687,3.3554 4.6875,4.582" /><path
         id="path34"
         style="fill:#808080;fill-opacity:1;fill-rule:evenodd;stroke:none"
         d="m 87.4023,91.6133 c 0.7305,-0.2735 2.6797,-2.2149 3.004,-2.9258 0.621,-0.2461 1.0546,-0.2656 1.4882,0.1641 0.2891,0.2851 0.2891,0.2617 0.3164,0.664 0.0899,1.4063 -0.0117,0.5899 -0.3515,0.7735 -0.7774,0.8593 -2.375,2.0976 -2.7344,3.0468 -0.6211,-0.4804 -1.2383,-1.1015 -1.7227,-1.7226" /><path
         id="path36"
         style="fill:#808080;fill-opacity:1;fill-rule:evenodd;stroke:none"
         d="m 94.5742,98.7852 c 1.3906,-0.5157 2.2617,-2.8243 3.8203,-2.9454 0.5977,0.2579 0.4219,0.1368 0.8125,0.6211 0.0352,1.8868 -2.3593,2.5704 -2.9101,4.0471 -0.6211,-0.485 -1.2383,-1.1017 -1.7227,-1.7228" /></g></g></svg>