<?xml version="1.0" encoding="UTF-8" standalone="no"?>
<svg
   xmlns:dc="http://purl.org/dc/elements/1.1/"
   xmlns:cc="http://creativecommons.org/ns#"
   xmlns:rdf="http://www.w3.org/1999/02/22-rdf-syntax-ns#"
   xmlns:svg="http://www.w3.org/2000/svg"
   xmlns="http://www.w3.org/2000/svg"
   viewBox="0 0 17.333332 17.333332"
   height="17.333332"
   width="17.333332"
   xml:space="preserve"
   id="svg2"
   version="1.1"><metadata
     id="metadata8"><rdf:RDF><cc:Work
         rdf:about=""><dc:format>image/svg+xml</dc:format><dc:type
           rdf:resource="http://purl.org/dc/dcmitype/StillImage" /></cc:Work></rdf:RDF></metadata><defs
     id="defs6" /><g
     transform="matrix(1.3333333,0,0,-1.3333333,0,17.333333)"
     id="g10"><g
       transform="scale(0.1)"
       id="g12"><path
         id="path14"
         style="fill-opacity:1;fill-rule:evenodd;stroke:none"
         d="M 122.305,77.1133 122.387,127.551 2.28906,127.523 2.13672,10.6563 C 2.6875,6.77344 1.35156,9.13281 3.48047,7.58203 L 122.219,7.41797 122.305,77.1133" /><path
         id="path16"
         style="fill:#ffffff;fill-opacity:1;fill-rule:evenodd;stroke:none"
         d="M 69.4688,33.6914 C 68.7656,33.6328 65,33.4844 64.7539,33.8555 64.6914,33.9414 64.4258,66.9141 64.7383,68.5664 l 5.0898,-0.0469 0.0586,-12.3515 c 1.1094,1.039 1.5391,2.664 2.9922,3.7187 1.5078,1.086 3.7266,0.8008 4.8281,-0.4648 1.7422,-1.9961 1.1094,-8.9688 1.1094,-12.168 0,-3.207 0.4805,-10.1055 -0.9453,-12.3476 -0.7695,-1.2149 -2.6172,-2.5508 -4.625,-1.3165 -1.4375,0.8868 -2.2656,2.8086 -2.5938,3.1875 -0.3398,0.3711 -0.0507,0.129 -0.4218,0.3438 z m 22.3515,4.9922 0.3164,2.4375 c 0,0.7773 -0.039,1.6406 0.0313,2.3672 L 96.6094,43.5 c 0,-1.9336 -0.1055,-3.3477 -0.336,-5.1328 0.0274,-2.0274 -2.3593,-4.582 -4.2421,-4.9844 -2.8829,-0.625 -5.8907,0.0742 -7.3243,1.6719 -1.7343,1.9101 -2.0351,4.043 -2.0781,7.293 -0.0391,3.0625 -0.0391,6.2265 0.0274,9.2851 0.0703,3.0391 0.4921,5.5469 2.2148,7.125 1.6641,1.5156 4.5078,2.0664 7.207,1.1992 2.2032,-0.7226 3.7266,-2.5312 4.1953,-5.0898 0.4414,-2.3945 0.5586,-6.1563 0.4414,-8.7344 l -8.832,-0.0312 c -0.2851,-0.9493 -0.1758,-6.9102 0.0352,-7.9883 0.4961,-2.4844 3.5468,-2.375 3.9023,0.5703 z M 53.625,35.4922 v 0 c -0.5742,-0.8359 -1.1406,-1.8555 -2.3633,-2.1797 -5.4648,-1.4609 -4.9609,5.6172 -5,8.5039 -0.0859,5.9727 -0.1367,12.2969 0.0078,18.2969 h 5.1172 c 0.1133,-3.9961 0.0156,-8.1445 0.0156,-12.1602 0,-1.9961 0.0235,-3.9687 0.0547,-5.9648 0.0196,-1.7617 -0.1211,-3.9141 1.9727,-3.8477 2.0742,0.0586 1.8281,2.2578 1.8476,4.0274 0.0508,5.9492 -0.1015,12.0976 0.0235,17.9609 l 5.1484,-0.0156 -0.0625,-26.4727 -5.1289,0.0352 -0.043,1.4765 z M 29.5078,68.5703 v 0 l 15.7969,-0.0508 -0.0156,-5.4687 -5.211,-0.0156 -0.0703,-29.3633 -5.4062,0.0429 -0.0352,29.3204 -5.125,0.0156 z M 102.953,45.1484 v 0 c 0.235,5.3868 0.051,11.0899 -0.226,16.5235 -0.286,5.5312 -0.954,8.3633 -5.0512,11.9336 -3.7969,3.3008 -7.6328,3.2383 -13.75,3.3633 -5.375,0.1054 -10.9727,0.3632 -16.457,0.3984 -8.504,0.0664 -16.7891,-0.082 -25.2422,-0.3281 -7.8047,-0.2227 -13.4024,0.5937 -18.3008,-7.1094 -2.2813,-3.5938 -2.0547,-9.6992 -2.125,-14.6211 -0.1055,-5.6211 -0.0469,-11.0977 0.2344,-16.668 0.1601,-3.2343 0.0898,-4.4843 1.3046,-7.2812 0.8125,-1.8633 2.3907,-3.7578 3.6758,-4.7539 4.4571,-3.4688 6.8828,-3.2617 13.6367,-3.4336 14.6094,-0.3711 27.4493,-0.4571 42.0547,-0.0391 2.586,0.0664 5.5391,0 8.0508,0.3047 4.7461,0.5742 8.2695,3.7773 10.1172,6.8828 2.387,4 1.852,9.5352 2.078,14.8281" /><path
         id="path18"
         style="fill:#ffffff;fill-opacity:1;fill-rule:evenodd;stroke:none"
         d="m 78.3203,80.9375 c 0.6719,-0.0117 0.9922,-0.2266 1.5117,-0.457 l 0.1524,-1.2852 5.3281,-0.0703 0.0508,25.293 c -1.1485,0.066 -4.4375,0.191 -5.3633,-0.098 -0.207,-5.2184 0.0195,-12.0544 -0.0195,-17.6403 -0.0157,-1.9414 0.0468,-4.0781 -1.9922,-4.0352 -1.9492,0.0352 -1.8399,2.2071 -1.9102,3.8594 -0.1953,5.7266 0.2461,12.2149 -0.0508,17.8871 -1.0039,0.121 -4.4921,0.207 -5.3203,-0.078 l 0.0391,-17.6411 c 0.1055,-2.6328 -0.2773,-5.8985 1.6367,-7.3281 0.8672,-0.6485 2.2813,-0.9258 3.5195,-0.5625 1.2852,0.375 1.6407,1.2265 2.418,2.1562" /><path
         id="path20"
         style="fill:#ffffff;fill-opacity:1;fill-rule:evenodd;stroke:none"
         d="m 57.5117,96.3203 c 0.0117,2.0508 -0.25,5.0427 1.8946,5.1057 2.2031,0.074 1.957,-3.1838 1.957,-5.1057 v -9.9922 c 0,-1.9336 0.0703,-4.8906 -2.1055,-4.6562 -1.8867,0.2031 -1.7461,3.1445 -1.7461,5.0078 z m 0.3906,8.0777 v 0 c -6.4882,-1.128 -5.7773,-8.0113 -5.746,-14.5621 0.0039,-2.9609 -0.0196,-6.6484 1.4257,-8.7968 1.3672,-2.0157 4.4258,-2.7852 7.5782,-2.2657 6.1914,1.0313 5.5703,8.3985 5.5703,14.5625 0.0156,3.0664 0.0312,6.4063 -1.6367,8.5041 -1.379,1.73 -3.879,3.129 -7.1915,2.558" /><path
         id="path22"
         style="fill:#ffffff;fill-opacity:1;fill-rule:evenodd;stroke:none"
         d="m 46.1836,79.2031 c 0.3672,3.3633 -0.2305,12.7969 0.1523,14.5742 0.6954,3.2461 4.9297,18.3947 4.9141,19.6207 l -3.8359,0.036 -3.3594,-13.7621 c -1.4453,3.1331 -3.0977,10.9331 -4.3984,13.6951 l -3.8282,0.071 c 0.0117,-0.829 4.375,-15.4302 4.9649,-17.3169 1.1953,-3.8203 0.8125,-6.0742 0.8164,-10.4883 0,-7.4883 -0.5547,-6.5195 1.8398,-6.4961 0.9063,0.0039 1.8516,-0.0781 2.7344,0.0664" /><path
         id="path24"
         style="fill:#ffffff;fill-opacity:1;fill-rule:evenodd;stroke:none"
         d="m 73.5,40.2422 c 0.4141,2.0312 0.2109,7.4414 0.1797,9.8125 -0.0195,1.4414 0.0781,3.5078 -0.8438,4.3164 -1.1914,1.0469 -2.5937,0.2227 -2.8476,-1.2539 -0.3985,-2.3555 -0.1797,-7.2539 -0.1563,-9.8984 0.0157,-1.4258 -0.0625,-3.5704 0.8203,-4.3477 1.3047,-1.168 2.5625,-0.0586 2.8477,1.3711" /><path
         id="path26"
         style="fill:#ffffff;fill-opacity:1;fill-rule:evenodd;stroke:none"
         d="m 87.7813,52.3359 0.0156,-3.2968 h 3.7773 c 0.0469,1.6211 0.25,5.4961 -0.5703,6.5117 -0.6562,0.8125 -2.0273,0.7344 -2.6992,-0.0547 -0.6445,-0.7656 -0.5234,-1.9883 -0.5234,-3.1602" /></g></g></svg>