<?xml version="1.0" encoding="UTF-8" standalone="no"?>
<svg
   xmlns:dc="http://purl.org/dc/elements/1.1/"
   xmlns:cc="http://creativecommons.org/ns#"
   xmlns:rdf="http://www.w3.org/1999/02/22-rdf-syntax-ns#"
   xmlns:svg="http://www.w3.org/2000/svg"
   xmlns="http://www.w3.org/2000/svg"
   viewBox="0 0 46.666668 46.666668"
   height="46.666668"
   width="46.666668"
   xml:space="preserve"
   id="svg2"
   version="1.1"><metadata
     id="metadata8"><rdf:RDF><cc:Work
         rdf:about=""><dc:format>image/svg+xml</dc:format><dc:type
           rdf:resource="http://purl.org/dc/dcmitype/StillImage" /></cc:Work></rdf:RDF></metadata><defs
     id="defs6" /><g
     transform="matrix(1.3333333,0,0,-1.3333333,0,46.666667)"
     id="g10"><g
       transform="scale(0.1)"
       id="g12"><path
         id="path14"
         style="fill:#76a117;fill-opacity:1;fill-rule:evenodd;stroke:none"
         d="m 172.262,342.445 c 94.265,0 170.691,-76.422 170.691,-170.687 C 342.953,77.4922 266.527,1.07031 172.262,1.07031 77.9961,1.07031 1.57422,77.4922 1.57422,171.758 c 0,94.265 76.42188,170.687 170.68778,170.687 z m 0.176,-4.539 c 90.972,0 164.726,-74.121 164.726,-165.551 C 337.164,80.9336 263.41,6.8125 172.438,6.8125 81.457,6.8125 7.70313,80.9336 7.70313,172.355 c 0,91.43 73.75387,165.551 164.73487,165.551" /><path
         id="path16"
         style="fill:#f67503;fill-opacity:1;fill-rule:evenodd;stroke:none"
         d="m 99.8164,125.148 c 1.1676,-6.617 1.7856,-18.793 10.6326,-17.566 4.227,0.59 4.656,2.336 5.539,3.586 4.297,13.957 2.895,27.809 2.895,43.809 0,15.578 0.019,31.144 -0.028,46.726 -0.218,3.613 -0.296,2.852 1.583,2.879 l 122.246,0.074 c 0.043,-5.258 1.023,-73.047 -0.95,-77.64 -1.027,-2.395 0.102,-1.028 -1.789,-2.067 -1.418,-3.738 -1.941,-4.691 -6.601,-5.617 l -68.426,-9.648 c -7.254,-1.489 -21.879,-3.161 -30.75,-4.231 -5.191,-0.621 -10.684,-1.457 -15.777,-2.215 -10.254,-1.543 -7.668,-0.508 -15.086,2.254 5.383,-11.0936 9.347,-8.9451 22.523,-7.1092 9.672,1.3516 19.371,2.7192 29.199,4.0822 12.032,1.676 79.047,9.156 86.602,13.898 8.164,5.137 7.129,15.938 7.133,26.934 0,21.019 1.289,46.519 -0.18,66.984 l -36.492,0.153 -2.742,18.457 -121.6019,-11.422 12.0703,-92.321" /><path
         id="path18"
         style="fill:#f67503;fill-opacity:1;fill-rule:evenodd;stroke:none"
         d="m 193.445,126.813 39.77,-0.18 -0.887,30.711 -39.133,0.031 0.25,-30.562" /><path
         id="path20"
         style="fill:#f67503;fill-opacity:1;fill-rule:evenodd;stroke:none"
         d="m 144.703,144.613 c -15.043,0.039 -10.746,1.098 -12.242,-2.215 1.621,-2.21 -2.77,-2.527 5.871,-2.558 l 35.121,0.148 c 10.992,-0.035 11.762,-1.543 11.762,2.352 0,3.316 -1.164,2.351 -5.356,2.387 l -35.156,-0.114" /><path
         id="path22"
         style="fill:#f67503;fill-opacity:1;fill-rule:evenodd;stroke:none"
         d="m 132.633,152.922 52.398,-0.059 0.317,3.907 c -4.149,1.597 -45.602,1.05 -52.801,0.421 l 0.086,-4.269" /><path
         id="path24"
         style="fill:#f67503;fill-opacity:1;fill-rule:evenodd;stroke:none"
         d="m 144.262,132.195 c -15.043,0.035 -10.739,1.094 -12.239,-2.218 1.618,-2.211 -2.769,-2.524 5.872,-2.555 l 35.121,0.148 c 10.996,-0.035 11.761,-1.547 11.761,2.348 0,3.32 -1.168,2.348 -5.359,2.387 l -35.156,-0.11" /><path
         id="path26"
         style="fill:#f67503;fill-opacity:1;fill-rule:nonzero;stroke:none"
         d="m 132.352,166.293 v 27.75 h 3.418 l 13.183,-21.777 v 21.777 h 3.195 v -27.75 h -3.414 l -13.187,21.781 v -21.781 z m 25.453,0 v 27.75 h 18.144 v -3.254 h -14.812 v -8.523 H 175 v -3.258 h -13.863 v -9.461 h 15.406 v -3.254 z m 27.672,0 -6.618,27.75 h 3.457 l 3.766,-18.195 c 0.406,-1.903 0.77,-3.801 1.078,-5.668 0.656,2.953 1.051,4.66 1.16,5.113 l 4.746,18.75 h 4.016 l 3.598,-14.047 c 0.886,-3.488 1.535,-6.762 1.961,-9.816 0.332,1.75 0.757,3.758 1.277,6.023 l 3.926,17.84 h 3.34 l -6.875,-27.75 h -3.239 l -5.269,21.145 c -0.446,1.769 -0.711,2.851 -0.813,3.25 -0.285,-1.262 -0.547,-2.348 -0.765,-3.247 l -5.27,-21.148 z m 27.699,8.918 3.121,0.309 c 0.152,-1.395 0.496,-2.54 1.043,-3.442 0.543,-0.887 1.383,-1.609 2.527,-2.168 1.141,-0.547 2.426,-0.828 3.852,-0.828 1.269,0 2.383,0.207 3.359,0.629 0.969,0.422 1.688,0.996 2.164,1.727 0.473,0.73 0.711,1.519 0.711,2.378 0,0.864 -0.226,1.622 -0.683,2.274 -0.457,0.644 -1.215,1.191 -2.262,1.629 -0.672,0.281 -2.168,0.742 -4.477,1.355 -2.312,0.61 -3.926,1.188 -4.851,1.727 -1.196,0.699 -2.086,1.566 -2.672,2.594 -0.59,1.027 -0.883,2.179 -0.883,3.453 0,1.402 0.367,2.718 1.086,3.933 0.719,1.219 1.766,2.145 3.148,2.778 1.383,0.636 2.922,0.953 4.61,0.953 1.859,0 3.504,-0.332 4.929,-0.996 1.422,-0.661 2.516,-1.637 3.278,-2.93 0.762,-1.281 1.176,-2.742 1.238,-4.371 l -3.199,-0.27 c -0.168,1.75 -0.75,3.075 -1.735,3.961 -0.992,0.903 -2.449,1.348 -4.382,1.348 -2.008,0 -3.481,-0.41 -4.399,-1.219 -0.918,-0.812 -1.375,-1.797 -1.375,-2.949 0,-0.996 0.324,-1.813 0.973,-2.461 0.648,-0.641 2.312,-1.301 5.012,-1.973 2.703,-0.679 4.554,-1.273 5.566,-1.769 1.457,-0.746 2.535,-1.684 3.23,-2.824 0.696,-1.137 1.043,-2.446 1.043,-3.934 0,-1.477 -0.382,-2.859 -1.148,-4.164 -0.766,-1.305 -1.859,-2.32 -3.289,-3.047 -1.438,-0.719 -3.043,-1.086 -4.836,-1.086 -2.273,0 -4.172,0.371 -5.711,1.102 -1.531,0.726 -2.73,1.828 -3.605,3.3 -0.879,1.465 -1.332,3.125 -1.383,4.981" /><path
         id="path28"
         style="fill:#ffffff;fill-opacity:1;fill-rule:evenodd;stroke:none"
         d="m 92.7305,214.223 c 3.1562,0.39 19.8715,1.554 21.8635,1.781 0.66,-5.352 0.699,-42.063 0.64,-47.813 -0.187,-19.214 0.797,-54.5 -4.906,-56.175 -0.824,-0.239 -2.422,-0.489 -3.094,0.816 -5.886,11.375 -14.5231,101.391 -14.5035,101.391" /><path
         id="path30"
         style="fill:#ffffff;fill-opacity:1;fill-rule:evenodd;stroke:none"
         d="m 207.941,210.012 -1.664,14.433 -94.382,-8.672 -0.911,-5.894 96.957,0.133" /></g></g></svg>