<?xml version="1.0" encoding="UTF-8" standalone="no"?>
<svg
   xmlns:dc="http://purl.org/dc/elements/1.1/"
   xmlns:cc="http://creativecommons.org/ns#"
   xmlns:rdf="http://www.w3.org/1999/02/22-rdf-syntax-ns#"
   xmlns:svg="http://www.w3.org/2000/svg"
   xmlns="http://www.w3.org/2000/svg"
   viewBox="0 0 46.666668 46.666668"
   height="46.666668"
   width="46.666668"
   xml:space="preserve"
   id="svg2"
   version="1.1"><metadata
     id="metadata8"><rdf:RDF><cc:Work
         rdf:about=""><dc:format>image/svg+xml</dc:format><dc:type
           rdf:resource="http://purl.org/dc/dcmitype/StillImage" /></cc:Work></rdf:RDF></metadata><defs
     id="defs6" /><g
     transform="matrix(1.3333333,0,0,-1.3333333,0,46.666667)"
     id="g10"><g
       transform="scale(0.1)"
       id="g12"><path
         id="path14"
         style="fill:#76a117;fill-opacity:1;fill-rule:evenodd;stroke:none"
         d="m 175.156,348.695 c 94.266,0 170.688,-76.422 170.688,-170.687 C 345.844,83.7383 269.422,7.31641 175.156,7.31641 80.8867,7.31641 4.46484,83.7383 4.46484,178.008 c 0,94.265 76.42186,170.687 170.69116,170.687 z m 0.176,-4.539 c 90.969,0 164.727,-74.121 164.727,-165.551 0,-91.4253 -73.758,-165.5425 -164.727,-165.5425 -90.9804,0 -164.7382,74.1172 -164.7382,165.5425 0,91.43 73.7578,165.551 164.7382,165.551" /><path
         id="path16"
         style="fill:#fefefe;fill-opacity:1;fill-rule:evenodd;stroke:none"
         d="m 153.941,161.039 -2.031,19.223 c 7.051,7.926 6.387,5.215 18.367,5.207 -0.019,13.062 -1.718,17.719 12.422,17.781 14.348,0.07 12.805,-4.484 12.61,-17.742 9.449,-0.043 9.015,1.281 16.847,-2.594 l 0.524,-21.105 -17.293,-1.883 -1.012,-16.543 -22.215,-0.953 -2.23,17.812 z m -15.488,-45.07 88.875,0.441 0.164,130.57 -60.945,1.051 -0.043,-20.195 -17.457,-1.031 -1.317,21.047 -6.988,-1.219 -2.289,-130.664" /><path
         id="path18"
         style="fill:#f67503;fill-opacity:1;fill-rule:evenodd;stroke:none"
         d="m 123.148,247.219 10.235,0.195 0.566,-131.281 -10.176,-0.406 z m 17.489,0.129 7.14,-0.172 -0.023,-19.5 18.75,0.16 0.043,20.195 60.945,-1.051 -0.164,-130.57 -88.875,-0.441 z m -21.395,-135.496 110.774,-0.293 -0.004,139.769 -110.438,0.274 -0.332,-139.75" /><path
         id="path20"
         style="fill:#f67503;fill-opacity:1;fill-rule:evenodd;stroke:none"
         d="M 174.023,199.074 174,190.695 c -6.387,-0.074 -12.496,1.035 -14.684,-2.64 -1.046,-1.762 -1.113,-14.02 -0.015,-15.852 0.094,-0.152 2.09,-2.164 2.25,-2.277 1.949,-1.313 9.554,-0.684 12.48,-0.703 -0.023,-3.469 -0.992,-9.825 0.629,-12.391 2.215,-3.504 4.59,-2.894 9.899,-2.894 5.879,0.003 7.019,-0.852 9.984,2.808 1.98,2.438 0.605,8.563 1.102,12.223 6.847,0.406 10.593,-0.629 13.421,2.258 2.465,2.523 1.758,2.796 1.723,7.214 -0.098,13.192 0.426,12.239 -15.332,12.215 -0.027,13.793 1.336,15.414 -10.34,15.391 -6.512,-0.016 -11.094,1.277 -11.094,-6.973" /><path
         id="path22"
         style="fill:#ffffff;fill-opacity:1;fill-rule:evenodd;stroke:none"
         d="m 163.406,183.762 0.059,-7.555 c 2.586,-0.348 5.289,-0.191 7.855,-0.164 11.371,0.133 9.344,-3.773 9.442,-17.422 l 8.027,0.074 c -0.191,18.063 -0.609,17.336 17.129,17.336 l 0.324,8.055 c -2.844,0 -5.621,0.023 -8.394,-0.012 -4.063,-0.054 -4.895,-0.48 -7.082,1.66 -3.77,3.7 -1.161,7.641 -2.153,15.571 l -7.59,0.09 c -1.554,-8.59 3.657,-17.485 -9.046,-17.325 -2.825,0.032 -5.825,0.289 -8.571,-0.308" /><path
         id="path24"
         style="fill:#ffffff;fill-opacity:1;fill-rule:evenodd;stroke:none"
         d="m 152.035,231.313 h 10.7109 v 15.6641 H 152.035 Z" /></g></g></svg>