<?xml version="1.0" encoding="UTF-8" standalone="no"?>
<svg
   xmlns:dc="http://purl.org/dc/elements/1.1/"
   xmlns:cc="http://creativecommons.org/ns#"
   xmlns:rdf="http://www.w3.org/1999/02/22-rdf-syntax-ns#"
   xmlns:svg="http://www.w3.org/2000/svg"
   xmlns="http://www.w3.org/2000/svg"
   viewBox="0 0 25.333332 28"
   height="28"
   width="25.333332"
   xml:space="preserve"
   id="svg2"
   version="1.1"><metadata
     id="metadata8"><rdf:RDF><cc:Work
         rdf:about=""><dc:format>image/svg+xml</dc:format><dc:type
           rdf:resource="http://purl.org/dc/dcmitype/StillImage" /></cc:Work></rdf:RDF></metadata><defs
     id="defs6" /><g
     transform="matrix(1.3333333,0,0,-1.3333333,0,28)"
     id="g10"><g
       transform="scale(0.1)"
       id="g12"><path
         id="path14"
         style="fill:#00679f;fill-opacity:1;fill-rule:evenodd;stroke:none"
         d="m 70.043,116.508 c 1.8515,-0.887 22.0664,-5.547 24.9492,-5.547 2.6758,0 23.2228,4.715 24.9488,5.547 0,-4.621 -0.007,-9.242 0,-13.863 0.004,-5.5083 1.071,-8.9419 -2.433,-11.4223 -9.613,-6.8008 -35.4221,-6.8008 -45.0314,0 -3.5039,2.4804 -2.4375,5.914 -2.4336,11.4223 0.0039,4.621 0,9.242 0,13.863 z m 69.301,12.496 v -2.606 c -0.434,-2.804 -2.227,-5.363 -4.821,-6.457 -1.691,-0.711 -6.648,-1.996 -9.039,-2.046 V 94.3281 c 0,-6.0429 -4.41,-8.6015 -8.754,-10.6484 C 106.176,78.707 64.5,77.0117 64.5,94.3281 v 23.5669 c -2.3984,0.05 -7.7109,1.394 -9.5195,2.261 -3.4336,1.637 -4.3086,4.36 -4.3399,7.926 v 0.25 c 0.043,8.172 11.7305,8.883 19.8008,10.645 4.2774,0.929 8.0859,1.812 12.3516,2.894 17.582,4.465 17.1289,1.234 37.316,-3.016 3.981,-0.835 9.036,-1.792 12.411,-2.839 4.289,-1.325 6.359,-4.102 6.824,-7.012 z m -83.1643,-0.715 c 2.8359,2.984 14.8125,4.805 18.6601,5.598 28.2852,5.84 11.6602,6.023 39.7302,0.117 4.231,-0.891 16.344,-2.672 19.231,-5.715 -0.625,-2.672 -0.512,-2.574 -2.86,-3.379 l -25.382,-5.805 c -17.3754,-3.656 -8.9926,-2.292 -30.7192,2.196 -3.7421,0.773 -6.2695,1.492 -10.1679,2.308 -10.0391,2.102 -7.1055,1.579 -8.4922,4.68" /><path
         id="path16"
         style="fill:#00679f;fill-opacity:1;fill-rule:evenodd;stroke:none"
         d="M 131.027,113.734 V 88.7852 c 0,-3.6914 5.543,-3.6914 5.543,0 v 24.9488 c 0,3.696 -5.543,3.696 -5.543,0" /><path
         id="path18"
         style="fill:#00679f;fill-opacity:1;fill-rule:evenodd;stroke:none"
         d="m 128.254,72.8477 c 0,-8.4805 11.047,-8.4961 11.09,-0.0508 v 0.125 c -0.043,13.3359 -11.09,13.3125 -11.09,-0.0742" /><path
         id="path20"
         style="fill:#85c8c9;fill-opacity:1;fill-rule:nonzero;stroke:none"
         d="m 44.7539,35.2891 2.8086,0.0156 C 81.2227,19.0469 98.8359,14.3477 141.223,35.7383 L 144.125,35.75 94.8164,3.33984 44.7539,35.2891" /><path
         id="path22"
         style="fill:#85c8c9;fill-opacity:1;fill-rule:evenodd;stroke:none"
         d="m 94.1445,203.516 c 50.5315,0 91.4965,-40.965 91.4965,-91.5 0,-50.5316 -40.965,-91.5004 -91.4965,-91.5004 -50.5351,0 -91.49997,40.9688 -91.49997,91.5004 0,50.535 40.96487,91.5 91.49997,91.5 z m 0.0938,-2.434 c 48.7657,0 88.3047,-39.73 88.3047,-88.746 0,-49.0079 -39.539,-88.7422 -88.3047,-88.7422 -48.7735,0 -88.30861,39.7343 -88.30861,88.7422 0,49.016 39.53511,88.746 88.30861,88.746" /></g></g></svg>