<?xml version="1.0" encoding="UTF-8" standalone="no"?>
<svg
   xmlns:dc="http://purl.org/dc/elements/1.1/"
   xmlns:cc="http://creativecommons.org/ns#"
   xmlns:rdf="http://www.w3.org/1999/02/22-rdf-syntax-ns#"
   xmlns:svg="http://www.w3.org/2000/svg"
   xmlns="http://www.w3.org/2000/svg"
   viewBox="0 0 16 9.333333"
   height="9.333333"
   width="16"
   xml:space="preserve"
   id="svg2"
   version="1.1"><metadata
     id="metadata8"><rdf:RDF><cc:Work
         rdf:about=""><dc:format>image/svg+xml</dc:format><dc:type
           rdf:resource="http://purl.org/dc/dcmitype/StillImage" /></cc:Work></rdf:RDF></metadata><defs
     id="defs6" /><g
     transform="matrix(1.3333333,0,0,-1.3333333,0,9.3333333)"
     id="g10"><g
       transform="scale(0.1)"
       id="g12"><path
         id="path14"
         style="fill:#00a0a0;fill-opacity:1;fill-rule:evenodd;stroke:none"
         d="M 6.80078,68.4414 H 56.832 L 81.293,38.3555 56.9766,8.28125 H 6.80078 V 68.4414" /><path
         id="path16"
         style="fill:#00a0a0;fill-opacity:1;fill-rule:evenodd;stroke:none"
         d="m 71.5938,68.4414 h 16.164 L 112.223,38.3555 87.9063,8.28125 H 71.7383 L 96.0586,38.3555 71.5938,68.4414" /></g></g></svg>